01_QC1
…
# Cells remaining per sample
cells_after <- sapply(cellbender_seurat_objects, ncol)

qc_summary <- tibble(
  sample = names(cells_before),
  cells_before = cells_before,
  cells_after = cells_after[names(cells_before)],
  row.names = NULL
)

qc_summary %>% 
  mutate(cells_removed = cells_before - cells_after,
         pct_retained = round(100 * cells_after/cells_before, 1))

# A tibble: 26 × 5
   sample cells_before cells_after cells_removed pct_retained
   <chr>         <dbl>       <dbl>         <dbl>        <dbl>
 1 HC001       1723835        4817       1719018          0.3
 2 HC002       1615063        2708       1612355          0.2
 3 HC003       1272397        1508       1270889          0.1
 4 HC004       1056529        2202       1054327          0.2
 5 HC005       1686687        6589       1680098          0.4
 6 HC006       1939669        4188       1935481          0.2
 7 V002        1319911        7457       1312454          0.6
 8 V003        1125060        7237       1117823          0.6
 9 V007        1836325        5564       1830761          0.3
10 V009        2079231        2525       2076706          0.1
# ℹ 16 more rows

qc_summary

# A tibble: 26 × 3
   sample cells_before cells_after
   <chr>         <dbl>       <dbl>
 1 HC001       1723835        4817
 2 HC002       1615063        2708
 3 HC003       1272397        1508
 4 HC004       1056529        2202
 5 HC005       1686687        6589
 6 HC006       1939669        4188
 7 V002        1319911        7457
 8 V003        1125060        7237
 9 V007        1836325        5564
10 V009        2079231        2525
# ℹ 16 more rows
…
