01_QC2
…
doublet_by_cluster

# A tibble: 46 × 4
   cluster doublet     n proportion
   <fct>   <chr>   <int>      <dbl>
 1 0       Doublet    87    0.00658
 2 0       Singlet 13140    0.993  
 3 1       Doublet    49    0.00401
 4 1       Singlet 12174    0.996  
 5 2       Doublet   920    0.0857 
 6 2       Singlet  9809    0.914  
 7 3       Doublet    56    0.00549
 8 3       Singlet 10146    0.995  
 9 4       Doublet    63    0.00826
10 4       Singlet  7561    0.992  
# ℹ 36 more rows
…
top10_by_cluster <- MergedObject_Markers %>% 
  dplyr::filter(p_val_adj <= 0.05) %>% 
  dplyr::group_by(cluster) %>% 
  dplyr::slice_max(order_by = avg_log2FC,
                   n = 10,
                   with_ties = TRUE) %>% 
  dplyr::ungroup() %>% 
  dplyr::arrange(cluster, dplyr::desc(avg_log2FC))

#get a preview
print(top10_by_cluster, n = 30)

# A tibble: 230 × 7
   p_val avg_log2FC pct.1 pct.2 p_val_adj cluster gene   
   <dbl>      <dbl> <dbl> <dbl>     <dbl> <fct>   <chr>  
 1     0       5.25 0.27  0.008         0 0       CLCA4  
 2     0       5.03 0.997 0.069         0 0       KRT1   
 3     0       4.63 0.646 0.029         0 0       CHP2   
 4     0       4.56 0.265 0.013         0 0       GSTA3  
 5     0       4.28 0.998 0.276         0 0       KRT10  
 6     0       4.24 0.995 0.121         0 0       LY6D   
 7     0       4.14 0.998 0.128         0 0       DMKN   
 8     0       3.98 0.311 0.021         0 0       FOXN1  
 9     0       3.96 0.822 0.062         0 0       RHOV   
10     0       3.92 0.272 0.018         0 0       MYCL   
11     0       5.56 0.554 0.02          0 1       C1QTNF3
12     0       4.97 0.961 0.103         0 1       CCN5   
13     0       4.88 0.387 0.012         0 1       CD70   
14     0       4.76 0.907 0.101         0 1       PI16   
15     0       4.67 0.58  0.036         0 1       PCOLCE2
16     0       4.35 0.299 0.018         0 1       SPAG17 
17     0       4.29 0.382 0.024         0 1       CILP   
18     0       4.28 0.238 0.014         0 1       LVRN   
19     0       4.25 0.852 0.089         0 1       MFAP5  
20     0       4.24 0.214 0.012         0 1       GLRB   
21     0       8.62 0.43  0.002         0 2       SOX17  
22     0       8.40 0.853 0.006         0 2       PLVAP  
23     0       8.26 0.962 0.008         0 2       ADGRL4 
24     0       8.25 0.618 0.007         0 2       SELE   
25     0       8.18 0.709 0.008         0 2       ACKR1  
26     0       8.01 0.528 0.006         0 2       CSF3   
27     0       7.91 0.38  0.003         0 2       FAM110D
28     0       7.82 0.805 0.009         0 2       TACR1  
29     0       7.23 0.489 0.005         0 2       CCL14  
30     0       7.18 0.719 0.011         0 2       C2CD4B 
# ℹ 200 more rows
…
